{
    "version": "https://jsonfeed.org/version/1",
    "title": "東區華人浸信會 Pakuranga Chinese Baptist Church",
    "description": "",
    "home_page_url": "https://codeala.gitlab.io/demo.pcbc.org.nz",
    "feed_url": "https://codeala.gitlab.io/demo.pcbc.org.nz/feed.json",
    "user_comment": "",
    "author": {
        "name": "東浸 Webteam"
    },
    "items": [
        {
            "id": "https://codeala.gitlab.io/demo.pcbc.org.nz/jiao-mu-tuan-dui-pastoral-team.html",
            "url": "https://codeala.gitlab.io/demo.pcbc.org.nz/jiao-mu-tuan-dui-pastoral-team.html",
            "title": "教牧團隊 Pastoral team ",
            "summary": "教牧團隊 Pastoral team 主任牧師：鄧錦材牧師 Pastor Albert Tang 手機：021-614-301 電子郵件 : pr.albert@pcbc.org.nz 牧 師：卞國興牧師 Pastor James Bin 手機：027-2382524 電子郵件 : pr.james@pcbc.org.nz 傳道： 黎少安牧師 Pastor Andrew Lai 手機：021-0495326 電子郵件 : pr.andrew@pcbc.org.nz",
            "content_html": "<h3>教牧團隊<br>Pastoral team </h3>\n<p>主任牧師：鄧錦材牧師 Pastor Albert Tang 手機：021-614-301 <br>電子郵件 : <a href=\"mailto:pr.albert@pcbc.org.nz\">pr.albert@pcbc.org.nz</a></p>\n<p>牧 師：卞國興牧師 Pastor James Bin 手機：027-2382524 <br>電子郵件 : <a href=\"mailto:pr.james@pcbc.org.nz\">pr.james@pcbc.org.nz</a></p>\n<p>傳道： 黎少安牧師 Pastor Andrew Lai 手機：021-0495326 <br>電子郵件 : <a href=\"mailto:pr.andrew@pcbc.org.nz\">pr.andrew@pcbc.org.nz</a></p>",
            "image": "https://codeala.gitlab.io/demo.pcbc.org.nz/media/posts/4/",
            "author": {
                "name": "東浸 Webteam"
            },
            "tags": [
            ],
            "date_published": "2018-11-13T23:47:47+13:00",
            "date_modified": "2018-11-13T23:47:47+13:00"
        },
        {
            "id": "https://codeala.gitlab.io/demo.pcbc.org.nz/elderly-outreach-group.html",
            "url": "https://codeala.gitlab.io/demo.pcbc.org.nz/elderly-outreach-group.html",
            "title": "Elderly outreach group",
            "summary": "Elderly outreach group ",
            "content_html": "<p>Elderly outreach group</p>\n<p><img src=\"https://pcbc.org.nz/active/images/allphotos/maryho/ElderlyOutreachGp.JPG\" alt=\"\" width=\"611\" height=\"183\"></p>",
            "image": "https://codeala.gitlab.io/demo.pcbc.org.nz/media/posts/1/",
            "author": {
                "name": "東浸 Webteam"
            },
            "tags": [
                   "教育/課程 Education"
            ],
            "date_published": "2018-11-13T23:14:08+13:00",
            "date_modified": "2018-11-13T23:42:33+13:00"
        },
        {
            "id": "https://codeala.gitlab.io/demo.pcbc.org.nz/prayer-items.html",
            "url": "https://codeala.gitlab.io/demo.pcbc.org.nz/prayer-items.html",
            "title": "Prayer Items",
            "summary": "為將於2018年11月11日接受浸禮的弟兄姊妹們禱告, 求主堅定信心並認真他們所信的. 願他們決定一生跟隨主 Pray for those who will be getting baptized on 11 Nov 2018. May the Holy Spirit enlighten hearts that all may firmly know what they believe and to have courage to decide to follow Him.",
            "content_html": "<p>為將於2018年11月11日接受浸禮的弟兄姊妹們禱告, 求主堅定信心並認真他們所信的. 願他們決定一生跟隨主<br>Pray for those who will be getting baptized on 11 Nov 2018. May the Holy Spirit enlighten hearts that all may firmly know what they believe and to have courage to decide to follow Him.</p>",
            "image": "https://codeala.gitlab.io/demo.pcbc.org.nz/media/posts/2/",
            "author": {
                "name": "東浸 Webteam"
            },
            "tags": [
            ],
            "date_published": "2018-11-13T23:14:00+13:00",
            "date_modified": "2018-11-13T23:14:00+13:00"
        }
    ]
}
